﻿/ignoreAccessChecks
/metadataFile "C:\Users\Syndrome\Documents\Computer Programs\Star-Boy-II\Star-Boy-II\Star-Boy-II\obj\x64\Release\ilc\intermediate\ILTransformed\Star-Boy-II.metadata"
/gvmAssemblyName "Star-Boy-II.McgInterop"
/o
/sharedGenerics
/ilmergeinfo "C:\Users\Syndrome\Documents\Computer Programs\Star-Boy-II\Star-Boy-II\Star-Boy-II\obj\x64\Release\ilc\intermediate\ILTransformed\Star-Boy-II.csv"
/buildExpandedTocFiles
/multiFile
/sharedGenericsMode StandardUniversalGenericsHeuristics
/ResourcesDirectory "C:\Users\Syndrome\Documents\Computer Programs\Star-Boy-II\Star-Boy-II\Star-Boy-II\obj\x64\Release\ilc\intermediate\Resources"
/subsystem windows
/emitStackTraceMetadata
/in "C:\Users\Syndrome\Documents\Computer Programs\Star-Boy-II\Star-Boy-II\Star-Boy-II\obj\x64\Release\ilc\intermediate\ILTransformed\Star-Boy-II.ilexe"
/in "C:\Users\Syndrome\Documents\Computer Programs\Star-Boy-II\Star-Boy-II\Star-Boy-II\obj\x64\Release\ilc\intermediate\ILTransformed\MonoGame.Framework.ildll"
/in "C:\Users\Syndrome\Documents\Computer Programs\Star-Boy-II\Star-Boy-II\Star-Boy-II\obj\x64\Release\ilc\intermediate\ILTransformed\RotaryWheelUserControl.ildll"
/in "C:\Users\Syndrome\Documents\Computer Programs\Star-Boy-II\Star-Boy-II\Star-Boy-II\obj\x64\Release\ilc\intermediate\ILTransformed\SharpDX.Direct2D1.ildll"
/in "C:\Users\Syndrome\Documents\Computer Programs\Star-Boy-II\Star-Boy-II\Star-Boy-II\obj\x64\Release\ilc\intermediate\ILTransformed\SharpDX.Direct3D11.ildll"
/in "C:\Users\Syndrome\Documents\Computer Programs\Star-Boy-II\Star-Boy-II\Star-Boy-II\obj\x64\Release\ilc\intermediate\ILTransformed\SharpDX.DXGI.ildll"
/in "C:\Users\Syndrome\Documents\Computer Programs\Star-Boy-II\Star-Boy-II\Star-Boy-II\obj\x64\Release\ilc\intermediate\ILTransformed\SharpDX.ildll"
/in "C:\Users\Syndrome\Documents\Computer Programs\Star-Boy-II\Star-Boy-II\Star-Boy-II\obj\x64\Release\ilc\intermediate\ILTransformed\SharpDX.MediaFoundation.ildll"
/in "C:\Users\Syndrome\Documents\Computer Programs\Star-Boy-II\Star-Boy-II\Star-Boy-II\obj\x64\Release\ilc\intermediate\ILTransformed\SharpDX.XAudio2.ildll"
/in "C:\Users\Syndrome\Documents\Computer Programs\Star-Boy-II\Star-Boy-II\Star-Boy-II\obj\x64\Release\ilc\intermediate\ILTransformed\Star-Boy-II.McgInterop.ildll"
/in "C:\Users\Syndrome\Documents\Computer Programs\Star-Boy-II\Star-Boy-II\Star-Boy-II\obj\x64\Release\ilc\intermediate\ILTransformed\System.ComponentModel.ildll"
/in "C:\Users\Syndrome\Documents\Computer Programs\Star-Boy-II\Star-Boy-II\Star-Boy-II\obj\x64\Release\ilc\intermediate\ILTransformed\System.Console.ildll"
/in "C:\Users\Syndrome\Documents\Computer Programs\Star-Boy-II\Star-Boy-II\Star-Boy-II\obj\x64\Release\ilc\intermediate\ILTransformed\System.IO.FileSystem.ildll"
/in "C:\Users\Syndrome\Documents\Computer Programs\Star-Boy-II\Star-Boy-II\Star-Boy-II\obj\x64\Release\ilc\intermediate\ILTransformed\System.Numerics.Vectors.ildll"
/in "C:\Users\Syndrome\Documents\Computer Programs\Star-Boy-II\Star-Boy-II\Star-Boy-II\obj\x64\Release\ilc\intermediate\ILTransformed\System.Private.DeveloperExperience.AppX.ildll"
/in "C:\Users\Syndrome\Documents\Computer Programs\Star-Boy-II\Star-Boy-II\Star-Boy-II\obj\x64\Release\ilc\intermediate\ILTransformed\System.Private.StackTraceGenerator.ildll"
/in "C:\Users\Syndrome\Documents\Computer Programs\Star-Boy-II\Star-Boy-II\Star-Boy-II\obj\x64\Release\ilc\intermediate\ILTransformed\System.Private.Star-Boy-II.Generated.ildll"
/in "C:\Users\Syndrome\Documents\Computer Programs\Star-Boy-II\Star-Boy-II\Star-Boy-II\obj\x64\Release\ilc\intermediate\ILTransformed\System.Private.WinRTInterop.CoreLib.ildll"
/in "C:\Users\Syndrome\Documents\Computer Programs\Star-Boy-II\Star-Boy-II\Star-Boy-II\obj\x64\Release\ilc\intermediate\ILTransformed\System.Runtime.CompilerServices.Unsafe.ildll"
/in "C:\Users\Syndrome\Documents\Computer Programs\Star-Boy-II\Star-Boy-II\Star-Boy-II\obj\x64\Release\ilc\intermediate\ILTransformed\System.Runtime.InteropServices.ildll"
/in "C:\Users\Syndrome\Documents\Computer Programs\Star-Boy-II\Star-Boy-II\Star-Boy-II\obj\x64\Release\ilc\intermediate\ILTransformed\System.Runtime.InteropServices.WindowsRuntime.ildll"
/in "C:\Users\Syndrome\Documents\Computer Programs\Star-Boy-II\Star-Boy-II\Star-Boy-II\obj\x64\Release\ilc\intermediate\ILTransformed\System.Runtime.Serialization.Primitives.ildll"
/in "C:\Users\Syndrome\Documents\Computer Programs\Star-Boy-II\Star-Boy-II\Star-Boy-II\obj\x64\Release\ilc\intermediate\ILTransformed\System.Runtime.WindowsRuntime.ildll"
/in "C:\Users\Syndrome\Documents\Computer Programs\Star-Boy-II\Star-Boy-II\Star-Boy-II\obj\x64\Release\ilc\intermediate\ILTransformed\System.Runtime.WindowsRuntime.UI.Xaml.ildll"
/in "C:\Users\Syndrome\Documents\Computer Programs\Star-Boy-II\Star-Boy-II\Star-Boy-II\obj\x64\Release\ilc\intermediate\ILTransformed\System.Text.Encoding.CodePages.ildll"
/out "C:\Users\Syndrome\Documents\Computer Programs\Star-Boy-II\Star-Boy-II\Star-Boy-II\obj\x64\Release\ilc\intermediate\MDIL\Star-Boy-II.mdilexe"
/iltoc "C:\Users\Syndrome\.nuget\packages\runtime.win10-x64.microsoft.net.native.sharedlibrary\2.2.8-rel-30601-02\tools\SharedLibrary\ret\ILToc\System.Collections.iltoc*SharedLibrary"
/iltoc "C:\Users\Syndrome\.nuget\packages\runtime.win10-x64.microsoft.net.native.sharedlibrary\2.2.8-rel-30601-02\tools\SharedLibrary\ret\ILToc\System.Collections.Concurrent.iltoc*SharedLibrary"
/iltoc "C:\Users\Syndrome\.nuget\packages\runtime.win10-x64.microsoft.net.native.sharedlibrary\2.2.8-rel-30601-02\tools\SharedLibrary\ret\ILToc\System.Diagnostics.Tools.iltoc*SharedLibrary"
/iltoc "C:\Users\Syndrome\.nuget\packages\runtime.win10-x64.microsoft.net.native.sharedlibrary\2.2.8-rel-30601-02\tools\SharedLibrary\ret\ILToc\System.Diagnostics.Tracing.iltoc*SharedLibrary"
/iltoc "C:\Users\Syndrome\.nuget\packages\runtime.win10-x64.microsoft.net.native.sharedlibrary\2.2.8-rel-30601-02\tools\SharedLibrary\ret\ILToc\System.Linq.iltoc*SharedLibrary"
/iltoc "C:\Users\Syndrome\.nuget\packages\runtime.win10-x64.microsoft.net.native.sharedlibrary\2.2.8-rel-30601-02\tools\SharedLibrary\ret\ILToc\System.Linq.Expressions.iltoc*SharedLibrary"
/iltoc "C:\Users\Syndrome\.nuget\packages\runtime.win10-x64.microsoft.net.native.sharedlibrary\2.2.8-rel-30601-02\tools\SharedLibrary\ret\ILToc\System.Memory.iltoc*SharedLibrary"
/iltoc "C:\Users\Syndrome\.nuget\packages\runtime.win10-x64.microsoft.net.native.sharedlibrary\2.2.8-rel-30601-02\tools\SharedLibrary\ret\ILToc\System.ObjectModel.iltoc*SharedLibrary"
/iltoc "C:\Users\Syndrome\.nuget\packages\runtime.win10-x64.microsoft.net.native.sharedlibrary\2.2.8-rel-30601-02\tools\SharedLibrary\ret\ILToc\System.Private.CoreLib.iltoc*SharedLibrary"
/iltoc "C:\Users\Syndrome\.nuget\packages\runtime.win10-x64.microsoft.net.native.sharedlibrary\2.2.8-rel-30601-02\tools\SharedLibrary\ret\ILToc\System.Private.Interop.iltoc*SharedLibrary"
/iltoc "C:\Users\Syndrome\.nuget\packages\runtime.win10-x64.microsoft.net.native.sharedlibrary\2.2.8-rel-30601-02\tools\SharedLibrary\ret\ILToc\System.Private.Reflection.Core.iltoc*SharedLibrary"
/iltoc "C:\Users\Syndrome\.nuget\packages\runtime.win10-x64.microsoft.net.native.sharedlibrary\2.2.8-rel-30601-02\tools\SharedLibrary\ret\ILToc\System.Private.Reflection.Execution.iltoc*SharedLibrary"
/iltoc "C:\Users\Syndrome\.nuget\packages\runtime.win10-x64.microsoft.net.native.sharedlibrary\2.2.8-rel-30601-02\tools\SharedLibrary\ret\ILToc\System.Private.Reflection.Metadata.iltoc*SharedLibrary"
/iltoc "C:\Users\Syndrome\.nuget\packages\runtime.win10-x64.microsoft.net.native.sharedlibrary\2.2.8-rel-30601-02\tools\SharedLibrary\ret\ILToc\System.Private.StackTraceMetadata.iltoc*SharedLibrary"
/iltoc "C:\Users\Syndrome\.nuget\packages\runtime.win10-x64.microsoft.net.native.sharedlibrary\2.2.8-rel-30601-02\tools\SharedLibrary\ret\ILToc\System.Private.Threading.iltoc*SharedLibrary"
/iltoc "C:\Users\Syndrome\.nuget\packages\runtime.win10-x64.microsoft.net.native.sharedlibrary\2.2.8-rel-30601-02\tools\SharedLibrary\ret\ILToc\System.Private.TypeLoader.iltoc*SharedLibrary"
/iltoc "C:\Users\Syndrome\.nuget\packages\runtime.win10-x64.microsoft.net.native.sharedlibrary\2.2.8-rel-30601-02\tools\SharedLibrary\ret\ILToc\System.Private.Uri.iltoc*SharedLibrary"
/iltoc "C:\Users\Syndrome\.nuget\packages\runtime.win10-x64.microsoft.net.native.sharedlibrary\2.2.8-rel-30601-02\tools\SharedLibrary\ret\ILToc\System.Reflection.TypeExtensions.iltoc*SharedLibrary"
/iltoc "C:\Users\Syndrome\.nuget\packages\runtime.win10-x64.microsoft.net.native.sharedlibrary\2.2.8-rel-30601-02\tools\SharedLibrary\ret\ILToc\System.Runtime.iltoc*SharedLibrary"
/iltoc "C:\Users\Syndrome\.nuget\packages\runtime.win10-x64.microsoft.net.native.sharedlibrary\2.2.8-rel-30601-02\tools\SharedLibrary\ret\ILToc\System.Runtime.Extensions.iltoc*SharedLibrary"
/iltoc "C:\Users\Syndrome\.nuget\packages\runtime.win10-x64.microsoft.net.native.sharedlibrary\2.2.8-rel-30601-02\tools\SharedLibrary\ret\ILToc\System.Security.Principal.iltoc*SharedLibrary"
/iltoc "C:\Users\Syndrome\.nuget\packages\runtime.win10-x64.microsoft.net.native.sharedlibrary\2.2.8-rel-30601-02\tools\SharedLibrary\ret\ILToc\System.Text.RegularExpressions.iltoc*SharedLibrary"
/iltoc "C:\Users\Syndrome\.nuget\packages\runtime.win10-x64.microsoft.net.native.sharedlibrary\2.2.8-rel-30601-02\tools\SharedLibrary\ret\ILToc\System.Threading.iltoc*SharedLibrary"
/iltoc "C:\Users\Syndrome\.nuget\packages\runtime.win10-x64.microsoft.net.native.sharedlibrary\2.2.8-rel-30601-02\tools\SharedLibrary\ret\ILToc\System.Private.SharedLibrary.Generated.iltoc*SharedLibrary"
/iltoc "C:\Users\Syndrome\.nuget\packages\runtime.win10-x64.microsoft.net.native.sharedlibrary\2.2.8-rel-30601-02\tools\SharedLibrary\ret\ILToc\System.Private.SharedLibrary.Interop.Generated.iltoc*SharedLibrary"
/toc "C:\Users\Syndrome\.nuget\packages\runtime.win10-x64.microsoft.net.native.sharedlibrary\2.2.8-rel-30601-02\tools\SharedLibrary\ret\Toc\System.Collections.toc"
/toc "C:\Users\Syndrome\.nuget\packages\runtime.win10-x64.microsoft.net.native.sharedlibrary\2.2.8-rel-30601-02\tools\SharedLibrary\ret\Toc\System.Collections.Concurrent.toc"
/toc "C:\Users\Syndrome\.nuget\packages\runtime.win10-x64.microsoft.net.native.sharedlibrary\2.2.8-rel-30601-02\tools\SharedLibrary\ret\Toc\System.Diagnostics.Tools.toc"
/toc "C:\Users\Syndrome\.nuget\packages\runtime.win10-x64.microsoft.net.native.sharedlibrary\2.2.8-rel-30601-02\tools\SharedLibrary\ret\Toc\System.Diagnostics.Tracing.toc"
/toc "C:\Users\Syndrome\.nuget\packages\runtime.win10-x64.microsoft.net.native.sharedlibrary\2.2.8-rel-30601-02\tools\SharedLibrary\ret\Toc\System.Linq.toc"
/toc "C:\Users\Syndrome\.nuget\packages\runtime.win10-x64.microsoft.net.native.sharedlibrary\2.2.8-rel-30601-02\tools\SharedLibrary\ret\Toc\System.Linq.Expressions.toc"
/toc "C:\Users\Syndrome\.nuget\packages\runtime.win10-x64.microsoft.net.native.sharedlibrary\2.2.8-rel-30601-02\tools\SharedLibrary\ret\Toc\System.Memory.toc"
/toc "C:\Users\Syndrome\.nuget\packages\runtime.win10-x64.microsoft.net.native.sharedlibrary\2.2.8-rel-30601-02\tools\SharedLibrary\ret\Toc\System.ObjectModel.toc"
/toc "C:\Users\Syndrome\.nuget\packages\runtime.win10-x64.microsoft.net.native.sharedlibrary\2.2.8-rel-30601-02\tools\SharedLibrary\ret\Toc\System.Private.CoreLib.toc"
/toc "C:\Users\Syndrome\.nuget\packages\runtime.win10-x64.microsoft.net.native.sharedlibrary\2.2.8-rel-30601-02\tools\SharedLibrary\ret\Toc\System.Private.Interop.toc"
/toc "C:\Users\Syndrome\.nuget\packages\runtime.win10-x64.microsoft.net.native.sharedlibrary\2.2.8-rel-30601-02\tools\SharedLibrary\ret\Toc\System.Private.Reflection.Core.toc"
/toc "C:\Users\Syndrome\.nuget\packages\runtime.win10-x64.microsoft.net.native.sharedlibrary\2.2.8-rel-30601-02\tools\SharedLibrary\ret\Toc\System.Private.Reflection.Execution.toc"
/toc "C:\Users\Syndrome\.nuget\packages\runtime.win10-x64.microsoft.net.native.sharedlibrary\2.2.8-rel-30601-02\tools\SharedLibrary\ret\Toc\System.Private.Reflection.Metadata.toc"
/toc "C:\Users\Syndrome\.nuget\packages\runtime.win10-x64.microsoft.net.native.sharedlibrary\2.2.8-rel-30601-02\tools\SharedLibrary\ret\Toc\System.Private.StackTraceMetadata.toc"
/toc "C:\Users\Syndrome\.nuget\packages\runtime.win10-x64.microsoft.net.native.sharedlibrary\2.2.8-rel-30601-02\tools\SharedLibrary\ret\Toc\System.Private.Threading.toc"
/toc "C:\Users\Syndrome\.nuget\packages\runtime.win10-x64.microsoft.net.native.sharedlibrary\2.2.8-rel-30601-02\tools\SharedLibrary\ret\Toc\System.Private.TypeLoader.toc"
/toc "C:\Users\Syndrome\.nuget\packages\runtime.win10-x64.microsoft.net.native.sharedlibrary\2.2.8-rel-30601-02\tools\SharedLibrary\ret\Toc\System.Private.Uri.toc"
/toc "C:\Users\Syndrome\.nuget\packages\runtime.win10-x64.microsoft.net.native.sharedlibrary\2.2.8-rel-30601-02\tools\SharedLibrary\ret\Toc\System.Reflection.TypeExtensions.toc"
/toc "C:\Users\Syndrome\.nuget\packages\runtime.win10-x64.microsoft.net.native.sharedlibrary\2.2.8-rel-30601-02\tools\SharedLibrary\ret\Toc\System.Runtime.toc"
/toc "C:\Users\Syndrome\.nuget\packages\runtime.win10-x64.microsoft.net.native.sharedlibrary\2.2.8-rel-30601-02\tools\SharedLibrary\ret\Toc\System.Runtime.Extensions.toc"
/toc "C:\Users\Syndrome\.nuget\packages\runtime.win10-x64.microsoft.net.native.sharedlibrary\2.2.8-rel-30601-02\tools\SharedLibrary\ret\Toc\System.Security.Principal.toc"
/toc "C:\Users\Syndrome\.nuget\packages\runtime.win10-x64.microsoft.net.native.sharedlibrary\2.2.8-rel-30601-02\tools\SharedLibrary\ret\Toc\System.Text.RegularExpressions.toc"
/toc "C:\Users\Syndrome\.nuget\packages\runtime.win10-x64.microsoft.net.native.sharedlibrary\2.2.8-rel-30601-02\tools\SharedLibrary\ret\Toc\System.Threading.toc"
/toc "C:\Users\Syndrome\.nuget\packages\runtime.win10-x64.microsoft.net.native.sharedlibrary\2.2.8-rel-30601-02\tools\SharedLibrary\ret\Toc\System.Private.SharedLibrary.Generated.toc"
/toc "C:\Users\Syndrome\.nuget\packages\runtime.win10-x64.microsoft.net.native.sharedlibrary\2.2.8-rel-30601-02\tools\SharedLibrary\ret\Toc\System.Private.SharedLibrary.Interop.Generated.toc"
